\relax 
\citation{google}
\citation{lep}
\@writefile{toc}{\contentsline {section}{\numberline {1}Einleitung}{1}}
\@writefile{toc}{\contentsline {section}{\numberline {2}Hintergrund}{1}}
\@writefile{toc}{\contentsline {section}{\numberline {3}Methode}{2}}
\@writefile{toc}{\contentsline {subsection}{\numberline {3.1}L\IeC {\"o}sungsansatz}{2}}
\@writefile{toc}{\contentsline {subsection}{\numberline {3.2}Implementierung}{2}}
\bibdata{references.bib}
\bibcite{google}{goo}
\bibcite{lep}{LCT13}
\bibstyle{alpha}
\@writefile{toc}{\contentsline {section}{\numberline {4}Evaluation}{3}}
\@writefile{toc}{\contentsline {section}{\numberline {5}Zusammenfassung}{3}}
\@writefile{lof}{\contentsline {figure}{\numberline {1}{\ignorespaces \relax }}{4}}
\providecommand*\caption@xref[2]{\@setref\relax\@undefined{#1}}
\newlabel{fig:label}{{1}{4}}
