\relax 
\catcode `"\active 
\citation{adel1962algorithm}
\citation{ottmann2002algorithmen}
\citation{bellman1958routing}
\citation{berge2001theory}
\citation{Chen1976TheEM}
\citation{Song1995ACA}
\citation{amani2017new}
\babel@aux{ngerman}{}
\@writefile{toc}{\contentsline {subsection}{\numberline {1.1}Finden von Prim\"ar- und Sekund\"arquellen}{1}}
\citation{Surve2017ParallelIO}
\citation{Glssner2017ExperiencesFT}
\@writefile{toc}{\contentsline {subsection}{\numberline {1.2}Recherche zum Thema Sortieralgorithmen}{2}}
\@writefile{toc}{\contentsline {subsection}{\numberline {1.3}Wikipedia als Quelle}{2}}
\citation{verge}
\citation{statement}
\citation{first}
\citation{WinNT}
\citation{alala}
\citation{sedgewick1978implementing}
\citation{kushagra2014multi}
\citation{todd1978algorithm}
\citation{Astrachan2003BubbleSA}
\citation{cormen2009introduction}
\citation{Bentley1997FastAF}
\@writefile{toc}{\contentsline {subsection}{\numberline {1.4}Recherche zu einem eigenen Thema}{3}}
\citation{BDBDD}
\citation{wiki}
\citation{Katajainen1998TheUH}
\citation{java}
\bibdata{references}
\bibcite{adel1962algorithm}{\citeauthoryear {Adel'son-Vel'skii\ \BBA{} Landis}{Adel'son-Vel'skii\ \BBA{} Landis}{{\APACyear {1962}}}}
\APACbibcite{adel1962algorithm}{\citeauthoryear {Adel'son-Vel'skii\ \BBA{} Landis}{Adel'son-Vel'skii\ \BBA{} Landis}{{\APACyear {1962}}}}
\bibcite{amani2017new}{\citeauthoryear {Amani}{Amani}{{\APACyear {2017}}}}
\APACbibcite{amani2017new}{\citeauthoryear {Amani}{Amani}{{\APACyear {2017}}}}
\bibcite{Astrachan2003BubbleSA}{\citeauthoryear {Astrachan}{Astrachan}{{\APACyear {2003}}}}
\APACbibcite{Astrachan2003BubbleSA}{\citeauthoryear {Astrachan}{Astrachan}{{\APACyear {2003}}}}
\bibcite{bellman1958routing}{\citeauthoryear {Bellman}{Bellman}{{\APACyear {1958}}}}
\APACbibcite{bellman1958routing}{\citeauthoryear {Bellman}{Bellman}{{\APACyear {1958}}}}
\bibcite{Bentley1997FastAF}{\citeauthoryear {Bentley\ \BBA{} Sedgewick}{Bentley\ \BBA{} Sedgewick}{{\APACyear {1997}}}}
\APACbibcite{Bentley1997FastAF}{\citeauthoryear {Bentley\ \BBA{} Sedgewick}{Bentley\ \BBA{} Sedgewick}{{\APACyear {1997}}}}
\bibcite{berge2001theory}{\citeauthoryear {Berge}{Berge}{{\APACyear {2001}}}}
\APACbibcite{berge2001theory}{\citeauthoryear {Berge}{Berge}{{\APACyear {2001}}}}
\bibcite{Chen1976TheEM}{\citeauthoryear {Chen}{Chen}{{\APACyear {1976}}}}
\APACbibcite{Chen1976TheEM}{\citeauthoryear {Chen}{Chen}{{\APACyear {1976}}}}
\bibcite{cormen2009introduction}{\citeauthoryear {Cormen, Leiserson, Rivest{}\ \BBA{} Stein}{Cormen\ \BOthers {.}}{{\APACyear {2009}}}}
\APACbibcite{cormen2009introduction}{\citeauthoryear {Cormen, Leiserson, Rivest{}\ \BBA{} Stein}{Cormen\ \BOthers {.}}{{\APACyear {2009}}}}
\bibcite{statement}{\citeauthoryear {{\em  {Event Horizon Telescope Releases Humanity\IeC {\textquoteright }s First Ever Black Hole Image }Hole Image\/}}{{\em  {Event Horizon Telescope Releases Humanity\IeC {\textquoteright }s First Ever Black Hole Image }Hole Image\/}}{{\APACyear {{\bibnodate {}}}}}}
\APACbibcite{statement}{\citeauthoryear {{\em  {Event Horizon Telescope Releases Humanity\IeC {\textquoteright }s First Ever Black Hole Image }Hole Image\/}}{{\em  {Event Horizon Telescope Releases Humanity\IeC {\textquoteright }s First Ever Black Hole Image }Hole Image\/}}{{\APACyear {{\bibnodate {}}}}}}
\bibcite{first}{\citeauthoryear {{\em  {The first picture of a black hole opens a new era of astrophysics }Article\/}}{{\em  {The first picture of a black hole opens a new era of astrophysics }Article\/}}{{\APACyear {{\bibnodate {}}}}}}
\APACbibcite{first}{\citeauthoryear {{\em  {The first picture of a black hole opens a new era of astrophysics }Article\/}}{{\em  {The first picture of a black hole opens a new era of astrophysics }Article\/}}{{\APACyear {{\bibnodate {}}}}}}
\bibcite{Glssner2017ExperiencesFT}{\citeauthoryear {Gl{\"a}ssner\ \BOthers {.}}{Gl{\"a}ssner\ \BOthers {.}}{{\APACyear {2017}}}}
\APACbibcite{Glssner2017ExperiencesFT}{\citeauthoryear {Gl{\"a}ssner\ \BOthers {.}}{Gl{\"a}ssner\ \BOthers {.}}{{\APACyear {2017}}}}
\bibcite{BDBDD}{\citeauthoryear {Hartmann, Bernt{}\ \BBA{} Middendorf}{Hartmann\ \BOthers {.}}{{\APACyear {2019}}}}
\APACbibcite{BDBDD}{\citeauthoryear {Hartmann, Bernt{}\ \BBA{} Middendorf}{Hartmann\ \BOthers {.}}{{\APACyear {2019}}}}
\bibcite{verge}{\citeauthoryear {{\em  {Karl Schwarzschild }Status\/}}{{\em  {Karl Schwarzschild }Status\/}}{{\APACyear {{\bibnodate {}}}}}}
\APACbibcite{verge}{\citeauthoryear {{\em  {Karl Schwarzschild }Status\/}}{{\em  {Karl Schwarzschild }Status\/}}{{\APACyear {{\bibnodate {}}}}}}
\bibcite{Katajainen1998TheUH}{\citeauthoryear {Katajainen}{Katajainen}{{\APACyear {1998}}}}
\APACbibcite{Katajainen1998TheUH}{\citeauthoryear {Katajainen}{Katajainen}{{\APACyear {1998}}}}
\bibcite{kushagra2014multi}{\citeauthoryear {Kushagra, L{\'o}pez-Ortiz, Munro{}\ \BBA{} Qiao}{Kushagra\ \BOthers {.}}{{\APACyear {2014}}}}
\APACbibcite{kushagra2014multi}{\citeauthoryear {Kushagra, L{\'o}pez-Ortiz, Munro{}\ \BBA{} Qiao}{Kushagra\ \BOthers {.}}{{\APACyear {2014}}}}
\bibcite{ottmann2002algorithmen}{\citeauthoryear {Ottmann\ \BBA{} Widmayer}{Ottmann\ \BBA{} Widmayer}{{\APACyear {2002}}}}
\APACbibcite{ottmann2002algorithmen}{\citeauthoryear {Ottmann\ \BBA{} Widmayer}{Ottmann\ \BBA{} Widmayer}{{\APACyear {2002}}}}
\bibcite{WinNT}{\citeauthoryear {{\em  {Picture of Black hole} A description\/}}{{\em  {Picture of Black hole} A description\/}}{{\APACyear {{\bibnodate {}}}}}}
\APACbibcite{WinNT}{\citeauthoryear {{\em  {Picture of Black hole} A description\/}}{{\em  {Picture of Black hole} A description\/}}{{\APACyear {{\bibnodate {}}}}}}
\bibcite{wiki}{\citeauthoryear {{\em  {QuickSort} Ein Sortier Algorithmus\/}}{{\em  {QuickSort} Ein Sortier Algorithmus\/}}{{\APACyear {{\bibnodate {}}}}}}
\APACbibcite{wiki}{\citeauthoryear {{\em  {QuickSort} Ein Sortier Algorithmus\/}}{{\em  {QuickSort} Ein Sortier Algorithmus\/}}{{\APACyear {{\bibnodate {}}}}}}
\bibcite{sedgewick1978implementing}{\citeauthoryear {Sedgewick}{Sedgewick}{{\APACyear {1978}}}}
\APACbibcite{sedgewick1978implementing}{\citeauthoryear {Sedgewick}{Sedgewick}{{\APACyear {1978}}}}
\bibcite{Song1995ACA}{\citeauthoryear {Song}{Song}{{\APACyear {1995}}}}
\APACbibcite{Song1995ACA}{\citeauthoryear {Song}{Song}{{\APACyear {1995}}}}
\bibcite{java}{\citeauthoryear {{\em  {Sortieralgorithmen in Java } Ein \IeC {\"U}berblick\/}}{{\em  {Sortieralgorithmen in Java } Ein \IeC {\"U}berblick\/}}{{\APACyear {{\bibnodate {}}}}}}
\APACbibcite{java}{\citeauthoryear {{\em  {Sortieralgorithmen in Java } Ein \IeC {\"U}berblick\/}}{{\em  {Sortieralgorithmen in Java } Ein \IeC {\"U}berblick\/}}{{\APACyear {{\bibnodate {}}}}}}
\bibcite{Surve2017ParallelIO}{\citeauthoryear {Surve\ \BBA{} Shah}{Surve\ \BBA{} Shah}{{\APACyear {2017}}}}
\APACbibcite{Surve2017ParallelIO}{\citeauthoryear {Surve\ \BBA{} Shah}{Surve\ \BBA{} Shah}{{\APACyear {2017}}}}
\bibcite{todd1978algorithm}{\citeauthoryear {Todd}{Todd}{{\APACyear {1978}}}}
\APACbibcite{todd1978algorithm}{\citeauthoryear {Todd}{Todd}{{\APACyear {1978}}}}
\@writefile{toc}{\contentsline {section}{Literatur}{6}}
\bibcite{alala}{\citeauthoryear {{\em  {West Michigan astronomy lovers and experts react to black hole photograph }News now\/}}{{\em  {West Michigan astronomy lovers and experts react to black hole photograph }News now\/}}{{\APACyear {{\bibnodate {}}}}}}
\APACbibcite{alala}{\citeauthoryear {{\em  {West Michigan astronomy lovers and experts react to black hole photograph }News now\/}}{{\em  {West Michigan astronomy lovers and experts react to black hole photograph }News now\/}}{{\APACyear {{\bibnodate {}}}}}}
\bibstyle{apacite}
