\relax 
\catcode `"\active 
\citation{chang2008bigtable}
\citation{kraska2018case}
\citation{kemper2011datenbanksysteme}
\citation{ren2018sentence}
\citation{Hahn:2018:PSS:3183713.3183754}
\babel@aux{ngerman}{}
\@writefile{toc}{\contentsline {subsection}{\numberline {2.1}Identifikation von Quellen}{1}}
\citation{bellman1958routing}
\citation{bellman1958routing}
\citation{bellman1958routing}
\citation{bellman1958routing}
\@writefile{toc}{\contentsline {subsection}{\numberline {2.2}Direkte und indirekte Zitate}{2}}
\@writefile{toc}{\contentsline {paragraph}{Zitat 1 (Direktes Zitat):}{2}}
\@writefile{toc}{\contentsline {paragraph}{Zitat 1 (Indirektes Zitat):}{2}}
\@writefile{toc}{\contentsline {paragraph}{Zitat 2 (Direktes Zitat):}{2}}
\@writefile{toc}{\contentsline {paragraph}{Zitat 2 (Indirektes Zitat)}{2}}
\@writefile{toc}{\contentsline {subsection}{\numberline {2.3}Langzitierweise und Kurzzitierweise}{2}}
\@writefile{toc}{\contentsline {subsection}{\numberline {2.4}Zitationsma\IeC {\ss }e}{2}}
\bibdata{references}
\bibcite{bellman1958routing}{1}
\bibcite{chang2008bigtable}{2}
\bibcite{Hahn:2018:PSS:3183713.3183754}{3}
\bibcite{kemper2011datenbanksysteme}{4}
\bibcite{kraska2018case}{5}
\bibcite{ren2018sentence}{6}
\bibstyle{abbrv}
