\relax 
\providecommand\hyper@newdestlabel[2]{}
\providecommand{\transparent@use}[1]{}
\providecommand\HyperFirstAtBeginDocument{\AtBeginDocument}
\HyperFirstAtBeginDocument{\ifx\hyper@anchor\@undefined
\global\let\oldcontentsline\contentsline
\gdef\contentsline#1#2#3#4{\oldcontentsline{#1}{#2}{#3}}
\global\let\oldnewlabel\newlabel
\gdef\newlabel#1#2{\newlabelxx{#1}#2}
\gdef\newlabelxx#1#2#3#4#5#6{\oldnewlabel{#1}{{#2}{#3}}}
\AtEndDocument{\ifx\hyper@anchor\@undefined
\let\contentsline\oldcontentsline
\let\newlabel\oldnewlabel
\fi}
\fi}
\global\let\hyper@last\relax 
\gdef\HyperFirstAtBeginDocument#1{#1}
\providecommand\HyField@AuxAddToFields[1]{}
\providecommand\HyField@AuxAddToCoFields[2]{}
\citation{HTSDOF}
\@writefile{toc}{\contentsline {section}{\numberline {1}Vorwort}{2}{section.1}}
\@writefile{toc}{\contentsline {section}{\numberline {2}Die Welt in unseren Taschen}{2}{section.2}}
\@writefile{toc}{\contentsline {subsection}{\numberline {2.1}Das Anti-Social Media}{2}{subsection.2.1}}
\@writefile{toc}{\contentsline {subsection}{\numberline {2.2}Die gr\IeC {\"o}\IeC {\ss }te Erfindung des 21. Jahrhunderts}{2}{subsection.2.2}}
\@writefile{toc}{\contentsline {subsection}{\numberline {2.3}Was Mark Zuckerberg eigentlich erfunden hat}{2}{subsection.2.3}}
\@writefile{toc}{\contentsline {subsection}{\numberline {2.4}Social Media in einer ganz trockenen Perspektive}{3}{subsection.2.4}}
\@writefile{toc}{\contentsline {subsubsection}{\numberline {2.4.1}Die beliebtesten Tiere Deutschlands }{3}{subsubsection.2.4.1}}
\@writefile{toc}{\contentsline {subsubsection}{\numberline {2.4.2}Die zweite Tabelle}{3}{subsubsection.2.4.2}}
\@writefile{toc}{\contentsline {section}{\numberline {3}Machinelearning and Social-Media}{4}{section.3}}
\@writefile{toc}{\contentsline {subsection}{\numberline {3.1}K-Means}{4}{subsection.3.1}}
\@writefile{toc}{\contentsline {subsection}{\numberline {3.2}Decision Trees}{4}{subsection.3.2}}
\@writefile{toc}{\contentsline {subsection}{\numberline {3.3}HAC}{5}{subsection.3.3}}
\@writefile{toc}{\contentsline {section}{\numberline {4}Eigene Kunstwerke}{5}{section.4}}
\@writefile{lof}{\contentsline {figure}{\numberline {1}{\ignorespaces Die Graphik stellt den Zusammenhang zwischen Abtreibungen und den zugeh\IeC {\"o}rigen Jahren dar. Wie man also sieht, sind eben diese \IeC {\"u}ber die Jahre gesunken.}}{6}{figure.1}}
\@writefile{toc}{\contentsline {section}{\numberline {5}Mathe macht Spa\IeC {\ss }}{6}{section.5}}
\@writefile{toc}{\contentsline {subsection}{\numberline {5.1}Formeln in Align Umgebung}{6}{subsection.5.1}}
\@writefile{toc}{\contentsline {subsubsection}{\numberline {5.1.1}Erste Gleichung}{6}{subsubsection.5.1.1}}
\newlabel{eq:equation1}{{1}{6}{Erste Gleichung}{equation.5.1}{}}
\citation{halloa}
\citation{hallob}
\citation{halloc}
\citation{hallod}
\citation{halloe}
\citation{hallof}
\citation{g}
\citation{i}
\citation{h}
\@writefile{toc}{\contentsline {subsubsection}{\numberline {5.1.2}Zweite Gleichung}{7}{subsubsection.5.1.2}}
\newlabel{eq:equation2}{{10}{7}{Zweite Gleichung}{equation.5.10}{}}
\@writefile{toc}{\contentsline {subsubsection}{\numberline {5.1.3}Abgesetzte Formeln}{7}{subsubsection.5.1.3}}
\@writefile{toc}{\contentsline {subsubsection}{\numberline {5.1.4}Es wird wieder Zeit f\IeC {\"u}r einen Text}{7}{subsubsection.5.1.4}}
\@writefile{toc}{\contentsline {section}{\numberline {6}Zitieren ist auch ganz sch\IeC {\"o}n}{7}{section.6}}
\@writefile{toc}{\contentsline {subsection}{\numberline {6.1}Aufz\IeC {\"a}hlungen sind auch super}{8}{subsection.6.1}}
\@writefile{toc}{\contentsline {subsubsection}{\numberline {6.1.1}Gute Mac Anwendungen}{8}{subsubsection.6.1.1}}
\@writefile{toc}{\contentsline {subsubsection}{\numberline {6.1.2}Sinnvolle Investition von Zeit}{9}{subsubsection.6.1.2}}
\@writefile{toc}{\contentsline {subsection}{\numberline {6.2}Nun gehts an den Code}{9}{subsection.6.2}}
\@writefile{toc}{\contentsline {subsubsection}{\numberline {6.2.1}Python in Latex}{9}{subsubsection.6.2.1}}
\@writefile{lol}{\contentsline {lstlisting}{linear\textunderscore regression.py}{9}{lstlisting.-1}}
\@writefile{toc}{\contentsline {subsubsection}{\numberline {6.2.2}Algorythmus}{10}{subsubsection.6.2.2}}
\@writefile{loa}{\contentsline {algorithm}{\numberline {1}{\ignorespaces Euclid\IeC {\textquoteright }s algorithm}}{10}{algorithm.1}}
\newlabel{alg:euclid}{{1}{10}{Algorythmus}{algorithm.1}{}}
\newlabel{euclidendwhile}{{6}{10}{Algorythmus}{algorithm.1}{}}
\bibdata{references.bib}
\bibcite{i}{Ast03}
\bibcite{hallof}{Bel58}
\bibcite{halloa}{CDG{$^{+}$}08}
\bibcite{halloe}{HLK18}
\bibcite{hallob}{KBC{$^{+}$}18}
\bibcite{halloc}{KE11}
\bibcite{g}{KLOMQ14}
\bibcite{HTSDOF}{K\IeC {\"a}}
\bibcite{hallod}{RCR{$^{+}$}18}
\bibcite{h}{Tod78}
\bibstyle{alphadin}
\@writefile{toc}{\contentsline {section}{\numberline {7}Schlusswort}{11}{section.7}}
